\input{rdb-cong-rtt-backoff-data}
\begin{tikzpicture}
\begin{axis}[
		ylabel=RTTs to wait,
		xlabel=CWND,
        xtick={0,...,10},
        ytick={0,...,5},
        ymax=6]
    \addplot table[x=x,y=y] {\loadedtable};
    \addplot table[y expr={((\thisrow{x}-12)/5)^2}, x={x}]  {\loadedtable};
    \addplot table[y expr={((\thisrow{x}-10)/4)^2}, x={x}]  {\loadedtable};
    \legend{$y = $Table\hspace{6pt}column, $y = ((x-12)/5)^2$, $y = ((x-10)/4)^2$}
\end{axis}
\end{tikzpicture}
