<?xml version="1.0" encoding="UTF-8"?>
<dia:diagram xmlns:dia="http://www.lysator.liu.se/~alla/dia/">
  <dia:diagramdata>
    <dia:attribute name="background">
      <dia:color val="#ffffff"/>
    </dia:attribute>
    <dia:attribute name="pagebreak">
      <dia:color val="#000099"/>
    </dia:attribute>
    <dia:attribute name="paper">
      <dia:composite type="paper">
        <dia:attribute name="name">
          <dia:string>#Letter#</dia:string>
        </dia:attribute>
        <dia:attribute name="tmargin">
          <dia:real val="2.5399999618530273"/>
        </dia:attribute>
        <dia:attribute name="bmargin">
          <dia:real val="2.5399999618530273"/>
        </dia:attribute>
        <dia:attribute name="lmargin">
          <dia:real val="2.5399999618530273"/>
        </dia:attribute>
        <dia:attribute name="rmargin">
          <dia:real val="2.5399999618530273"/>
        </dia:attribute>
        <dia:attribute name="is_portrait">
          <dia:boolean val="true"/>
        </dia:attribute>
        <dia:attribute name="scaling">
          <dia:real val="1"/>
        </dia:attribute>
        <dia:attribute name="fitto">
          <dia:boolean val="false"/>
        </dia:attribute>
      </dia:composite>
    </dia:attribute>
    <dia:attribute name="grid">
      <dia:composite type="grid">
        <dia:attribute name="width_x">
          <dia:real val="1"/>
        </dia:attribute>
        <dia:attribute name="width_y">
          <dia:real val="1"/>
        </dia:attribute>
        <dia:attribute name="visible_x">
          <dia:int val="1"/>
        </dia:attribute>
        <dia:attribute name="visible_y">
          <dia:int val="1"/>
        </dia:attribute>
        <dia:composite type="color"/>
      </dia:composite>
    </dia:attribute>
    <dia:attribute name="color">
      <dia:color val="#d8e5e5"/>
    </dia:attribute>
    <dia:attribute name="guides">
      <dia:composite type="guides">
        <dia:attribute name="hguides"/>
        <dia:attribute name="vguides"/>
      </dia:composite>
    </dia:attribute>
  </dia:diagramdata>
  <dia:layer name="Background" visible="true" active="true">
    <dia:object type="Standard - Line" version="0" id="O0">
      <dia:attribute name="obj_pos">
        <dia:point val="16.503,9.99541"/>
      </dia:attribute>
      <dia:attribute name="obj_bb">
        <dia:rectangle val="16.453,9.73361;42.5397,10.2572"/>
      </dia:attribute>
      <dia:attribute name="conn_endpoints">
        <dia:point val="16.503,9.99541"/>
        <dia:point val="42.4279,9.99541"/>
      </dia:attribute>
      <dia:attribute name="numcp">
        <dia:int val="42"/>
      </dia:attribute>
      <dia:attribute name="end_arrow">
        <dia:enum val="22"/>
      </dia:attribute>
      <dia:attribute name="end_arrow_length">
        <dia:real val="0.30000000000000004"/>
      </dia:attribute>
      <dia:attribute name="end_arrow_width">
        <dia:real val="0.30000000000000004"/>
      </dia:attribute>
    </dia:object>
    <dia:object type="Standard - Line" version="0" id="O1">
      <dia:attribute name="obj_pos">
        <dia:point val="17.1531,7.55005"/>
      </dia:attribute>
      <dia:attribute name="obj_bb">
        <dia:rectangle val="17.0975,7.49445;21.4071,10.7668"/>
      </dia:attribute>
      <dia:attribute name="conn_endpoints">
        <dia:point val="17.1531,7.55005"/>
        <dia:point val="20.7233,9.99541"/>
      </dia:attribute>
      <dia:attribute name="numcp">
        <dia:int val="2"/>
      </dia:attribute>
      <dia:attribute name="line_width">
        <dia:real val="0.079999998211860657"/>
      </dia:attribute>
      <dia:attribute name="end_arrow">
        <dia:enum val="7"/>
      </dia:attribute>
      <dia:attribute name="end_arrow_length">
        <dia:real val="0.5"/>
      </dia:attribute>
      <dia:attribute name="end_arrow_width">
        <dia:real val="0.5"/>
      </dia:attribute>
      <dia:connections>
        <dia:connection handle="0" to="O2" connection="0"/>
        <dia:connection handle="1" to="O0" connection="6"/>
      </dia:connections>
    </dia:object>
    <dia:object type="Standard - Line" version="0" id="O2">
      <dia:attribute name="obj_pos">
        <dia:point val="16.55,7.55"/>
      </dia:attribute>
      <dia:attribute name="obj_bb">
        <dia:rectangle val="16.5,7.29036;42.5944,7.81397"/>
      </dia:attribute>
      <dia:attribute name="conn_endpoints">
        <dia:point val="16.55,7.55"/>
        <dia:point val="42.4826,7.5522"/>
      </dia:attribute>
      <dia:attribute name="numcp">
        <dia:int val="42"/>
      </dia:attribute>
      <dia:attribute name="end_arrow">
        <dia:enum val="22"/>
      </dia:attribute>
      <dia:attribute name="end_arrow_length">
        <dia:real val="0.30000000000000004"/>
      </dia:attribute>
      <dia:attribute name="end_arrow_width">
        <dia:real val="0.30000000000000004"/>
      </dia:attribute>
    </dia:object>
    <dia:object type="Standard - Text" version="1" id="O3">
      <dia:attribute name="obj_pos">
        <dia:point val="17.5327,6.8522"/>
      </dia:attribute>
      <dia:attribute name="obj_bb">
        <dia:rectangle val="17.5327,6.4672;17.5327,6.9422"/>
      </dia:attribute>
      <dia:attribute name="text">
        <dia:composite type="text">
          <dia:attribute name="string">
            <dia:string>##</dia:string>
          </dia:attribute>
          <dia:attribute name="font">
            <dia:font family="Arial" style="0" name="Helvetica"/>
          </dia:attribute>
          <dia:attribute name="height">
            <dia:real val="0.52916664630174637"/>
          </dia:attribute>
          <dia:attribute name="pos">
            <dia:point val="17.5327,6.8522"/>
          </dia:attribute>
          <dia:attribute name="color">
            <dia:color val="#000000"/>
          </dia:attribute>
          <dia:attribute name="alignment">
            <dia:enum val="0"/>
          </dia:attribute>
        </dia:composite>
      </dia:attribute>
      <dia:attribute name="valign">
        <dia:enum val="3"/>
      </dia:attribute>
    </dia:object>
    <dia:object type="Standard - Text" version="1" id="O4">
      <dia:attribute name="obj_pos">
        <dia:point val="16.9577,6.5272"/>
      </dia:attribute>
      <dia:attribute name="obj_bb">
        <dia:rectangle val="16.9577,6.1422;17.4752,6.6172"/>
      </dia:attribute>
      <dia:attribute name="text">
        <dia:composite type="text">
          <dia:attribute name="string">
            <dia:string>#P1#</dia:string>
          </dia:attribute>
          <dia:attribute name="font">
            <dia:font family="Arial" style="0" name="Helvetica"/>
          </dia:attribute>
          <dia:attribute name="height">
            <dia:real val="0.52916664630174637"/>
          </dia:attribute>
          <dia:attribute name="pos">
            <dia:point val="16.9577,6.5272"/>
          </dia:attribute>
          <dia:attribute name="color">
            <dia:color val="#000000"/>
          </dia:attribute>
          <dia:attribute name="alignment">
            <dia:enum val="0"/>
          </dia:attribute>
        </dia:composite>
      </dia:attribute>
      <dia:attribute name="valign">
        <dia:enum val="3"/>
      </dia:attribute>
    </dia:object>
    <dia:object type="Standard - Line" version="0" id="O5">
      <dia:attribute name="obj_pos">
        <dia:point val="19.5654,7.55026"/>
      </dia:attribute>
      <dia:attribute name="obj_bb">
        <dia:rectangle val="19.5098,7.49465;23.2087,10.051"/>
      </dia:attribute>
      <dia:attribute name="conn_endpoints">
        <dia:point val="19.5654,7.55026"/>
        <dia:point val="23.1349,9.99541"/>
      </dia:attribute>
      <dia:attribute name="numcp">
        <dia:int val="3"/>
      </dia:attribute>
      <dia:attribute name="line_width">
        <dia:real val="0.079999998211860657"/>
      </dia:attribute>
      <dia:attribute name="end_arrow">
        <dia:enum val="22"/>
      </dia:attribute>
      <dia:attribute name="end_arrow_length">
        <dia:real val="0.30000000000000004"/>
      </dia:attribute>
      <dia:attribute name="end_arrow_width">
        <dia:real val="0.30000000000000004"/>
      </dia:attribute>
      <dia:connections>
        <dia:connection handle="0" to="O2" connection="4"/>
        <dia:connection handle="1" to="O0" connection="10"/>
      </dia:connections>
    </dia:object>
    <dia:object type="Standard - Text" version="1" id="O6">
      <dia:attribute name="obj_pos">
        <dia:point val="19.2482,6.48328"/>
      </dia:attribute>
      <dia:attribute name="obj_bb">
        <dia:rectangle val="19.2482,6.09828;19.7657,6.57328"/>
      </dia:attribute>
      <dia:attribute name="text">
        <dia:composite type="text">
          <dia:attribute name="string">
            <dia:string>#P2#</dia:string>
          </dia:attribute>
          <dia:attribute name="font">
            <dia:font family="Arial" style="0" name="Helvetica"/>
          </dia:attribute>
          <dia:attribute name="height">
            <dia:real val="0.52916664630174637"/>
          </dia:attribute>
          <dia:attribute name="pos">
            <dia:point val="19.2482,6.48328"/>
          </dia:attribute>
          <dia:attribute name="color">
            <dia:color val="#000000"/>
          </dia:attribute>
          <dia:attribute name="alignment">
            <dia:enum val="0"/>
          </dia:attribute>
        </dia:composite>
      </dia:attribute>
      <dia:attribute name="valign">
        <dia:enum val="3"/>
      </dia:attribute>
    </dia:object>
    <dia:object type="Standard - Line" version="0" id="O7">
      <dia:attribute name="obj_pos">
        <dia:point val="21.9778,7.55046"/>
      </dia:attribute>
      <dia:attribute name="obj_bb">
        <dia:rectangle val="21.9221,7.49485;25.6203,10.051"/>
      </dia:attribute>
      <dia:attribute name="conn_endpoints">
        <dia:point val="21.9778,7.55046"/>
        <dia:point val="25.5465,9.99541"/>
      </dia:attribute>
      <dia:attribute name="numcp">
        <dia:int val="1"/>
      </dia:attribute>
      <dia:attribute name="line_width">
        <dia:real val="0.079999998211860657"/>
      </dia:attribute>
      <dia:attribute name="end_arrow">
        <dia:enum val="22"/>
      </dia:attribute>
      <dia:attribute name="end_arrow_length">
        <dia:real val="0.30000000000000004"/>
      </dia:attribute>
      <dia:attribute name="end_arrow_width">
        <dia:real val="0.30000000000000004"/>
      </dia:attribute>
      <dia:connections>
        <dia:connection handle="0" to="O2" connection="8"/>
        <dia:connection handle="1" to="O0" connection="14"/>
      </dia:connections>
    </dia:object>
    <dia:object type="Standard - Text" version="1" id="O8">
      <dia:attribute name="obj_pos">
        <dia:point val="21.703,6.48801"/>
      </dia:attribute>
      <dia:attribute name="obj_bb">
        <dia:rectangle val="21.703,6.10301;22.2205,6.57801"/>
      </dia:attribute>
      <dia:attribute name="text">
        <dia:composite type="text">
          <dia:attribute name="string">
            <dia:string>#P3#</dia:string>
          </dia:attribute>
          <dia:attribute name="font">
            <dia:font family="Arial" style="0" name="Helvetica"/>
          </dia:attribute>
          <dia:attribute name="height">
            <dia:real val="0.52916664630174637"/>
          </dia:attribute>
          <dia:attribute name="pos">
            <dia:point val="21.703,6.48801"/>
          </dia:attribute>
          <dia:attribute name="color">
            <dia:color val="#000000"/>
          </dia:attribute>
          <dia:attribute name="alignment">
            <dia:enum val="0"/>
          </dia:attribute>
        </dia:composite>
      </dia:attribute>
      <dia:attribute name="valign">
        <dia:enum val="3"/>
      </dia:attribute>
    </dia:object>
    <dia:object type="Standard - Line" version="0" id="O9">
      <dia:attribute name="obj_pos">
        <dia:point val="24.3901,7.55067"/>
      </dia:attribute>
      <dia:attribute name="obj_bb">
        <dia:rectangle val="24.3345,7.49506;28.0319,10.051"/>
      </dia:attribute>
      <dia:attribute name="conn_endpoints">
        <dia:point val="24.3901,7.55067"/>
        <dia:point val="27.9582,9.99541"/>
      </dia:attribute>
      <dia:attribute name="numcp">
        <dia:int val="1"/>
      </dia:attribute>
      <dia:attribute name="line_width">
        <dia:real val="0.079999998211860657"/>
      </dia:attribute>
      <dia:attribute name="end_arrow">
        <dia:enum val="22"/>
      </dia:attribute>
      <dia:attribute name="end_arrow_length">
        <dia:real val="0.30000000000000004"/>
      </dia:attribute>
      <dia:attribute name="end_arrow_width">
        <dia:real val="0.30000000000000004"/>
      </dia:attribute>
      <dia:connections>
        <dia:connection handle="0" to="O2" connection="12"/>
        <dia:connection handle="1" to="O0" connection="18"/>
      </dia:connections>
    </dia:object>
    <dia:object type="Standard - Text" version="1" id="O10">
      <dia:attribute name="obj_pos">
        <dia:point val="24.2123,6.49274"/>
      </dia:attribute>
      <dia:attribute name="obj_bb">
        <dia:rectangle val="24.2123,6.10774;24.7298,6.58274"/>
      </dia:attribute>
      <dia:attribute name="text">
        <dia:composite type="text">
          <dia:attribute name="string">
            <dia:string>#P4#</dia:string>
          </dia:attribute>
          <dia:attribute name="font">
            <dia:font family="Arial" style="0" name="Helvetica"/>
          </dia:attribute>
          <dia:attribute name="height">
            <dia:real val="0.52916664630174637"/>
          </dia:attribute>
          <dia:attribute name="pos">
            <dia:point val="24.2123,6.49274"/>
          </dia:attribute>
          <dia:attribute name="color">
            <dia:color val="#000000"/>
          </dia:attribute>
          <dia:attribute name="alignment">
            <dia:enum val="0"/>
          </dia:attribute>
        </dia:composite>
      </dia:attribute>
      <dia:attribute name="valign">
        <dia:enum val="3"/>
      </dia:attribute>
    </dia:object>
    <dia:object type="Standard - Text" version="1" id="O11">
      <dia:attribute name="obj_pos">
        <dia:point val="22.2806,11.2427"/>
      </dia:attribute>
      <dia:attribute name="obj_bb">
        <dia:rectangle val="22.2806,10.8577;24.1606,11.3327"/>
      </dia:attribute>
      <dia:attribute name="text">
        <dia:composite type="text">
          <dia:attribute name="string">
            <dia:string>#DupACK1#</dia:string>
          </dia:attribute>
          <dia:attribute name="font">
            <dia:font family="Arial" style="0" name="Helvetica"/>
          </dia:attribute>
          <dia:attribute name="height">
            <dia:real val="0.52916664630174637"/>
          </dia:attribute>
          <dia:attribute name="pos">
            <dia:point val="22.2806,11.2427"/>
          </dia:attribute>
          <dia:attribute name="color">
            <dia:color val="#e3ad2a"/>
          </dia:attribute>
          <dia:attribute name="alignment">
            <dia:enum val="0"/>
          </dia:attribute>
        </dia:composite>
      </dia:attribute>
      <dia:attribute name="valign">
        <dia:enum val="3"/>
      </dia:attribute>
    </dia:object>
    <dia:object type="Standard - Text" version="1" id="O12">
      <dia:attribute name="obj_pos">
        <dia:point val="24.7305,11.2552"/>
      </dia:attribute>
      <dia:attribute name="obj_bb">
        <dia:rectangle val="24.7305,10.8702;26.6105,11.3452"/>
      </dia:attribute>
      <dia:attribute name="text">
        <dia:composite type="text">
          <dia:attribute name="string">
            <dia:string>#DupACK2#</dia:string>
          </dia:attribute>
          <dia:attribute name="font">
            <dia:font family="Arial" style="0" name="Helvetica"/>
          </dia:attribute>
          <dia:attribute name="height">
            <dia:real val="0.52916664630174637"/>
          </dia:attribute>
          <dia:attribute name="pos">
            <dia:point val="24.7305,11.2552"/>
          </dia:attribute>
          <dia:attribute name="color">
            <dia:color val="#000000"/>
          </dia:attribute>
          <dia:attribute name="alignment">
            <dia:enum val="0"/>
          </dia:attribute>
        </dia:composite>
      </dia:attribute>
      <dia:attribute name="valign">
        <dia:enum val="3"/>
      </dia:attribute>
    </dia:object>
    <dia:object type="Standard - Line" version="0" id="O13">
      <dia:attribute name="obj_pos">
        <dia:point val="23.1349,9.99541"/>
      </dia:attribute>
      <dia:attribute name="obj_bb">
        <dia:rectangle val="23.0795,7.4954;26.8768,10.0509"/>
      </dia:attribute>
      <dia:attribute name="conn_endpoints">
        <dia:point val="23.1349,9.99541"/>
        <dia:point val="26.8024,7.55087"/>
      </dia:attribute>
      <dia:attribute name="numcp">
        <dia:int val="5"/>
      </dia:attribute>
      <dia:attribute name="line_width">
        <dia:real val="0.079999998211860657"/>
      </dia:attribute>
      <dia:attribute name="end_arrow">
        <dia:enum val="22"/>
      </dia:attribute>
      <dia:attribute name="end_arrow_length">
        <dia:real val="0.30000000000000004"/>
      </dia:attribute>
      <dia:attribute name="end_arrow_width">
        <dia:real val="0.30000000000000004"/>
      </dia:attribute>
      <dia:connections>
        <dia:connection handle="0" to="O0" connection="10"/>
        <dia:connection handle="1" to="O2" connection="16"/>
      </dia:connections>
    </dia:object>
    <dia:object type="Standard - Line" version="0" id="O14">
      <dia:attribute name="obj_pos">
        <dia:point val="30.3698,9.99541"/>
      </dia:attribute>
      <dia:attribute name="obj_bb">
        <dia:rectangle val="30.3143,7.49602;34.1139,10.0509"/>
      </dia:attribute>
      <dia:attribute name="conn_endpoints">
        <dia:point val="30.3698,9.99541"/>
        <dia:point val="34.0394,7.55148"/>
      </dia:attribute>
      <dia:attribute name="numcp">
        <dia:int val="1"/>
      </dia:attribute>
      <dia:attribute name="line_width">
        <dia:real val="0.079999998211860657"/>
      </dia:attribute>
      <dia:attribute name="end_arrow">
        <dia:enum val="22"/>
      </dia:attribute>
      <dia:attribute name="end_arrow_length">
        <dia:real val="0.30000000000000004"/>
      </dia:attribute>
      <dia:attribute name="end_arrow_width">
        <dia:real val="0.30000000000000004"/>
      </dia:attribute>
      <dia:connections>
        <dia:connection handle="0" to="O0" connection="22"/>
        <dia:connection handle="1" to="O2" connection="28"/>
      </dia:connections>
    </dia:object>
    <dia:object type="Standard - Text" version="1" id="O15">
      <dia:attribute name="obj_pos">
        <dia:point val="25.8536,6.46381"/>
      </dia:attribute>
      <dia:attribute name="obj_bb">
        <dia:rectangle val="25.8536,6.07881;27.8036,6.55381"/>
      </dia:attribute>
      <dia:attribute name="text">
        <dia:composite type="text">
          <dia:attribute name="string">
            <dia:string>#P1 retrans#</dia:string>
          </dia:attribute>
          <dia:attribute name="font">
            <dia:font family="Arial" style="0" name="Helvetica"/>
          </dia:attribute>
          <dia:attribute name="height">
            <dia:real val="0.52916664630174637"/>
          </dia:attribute>
          <dia:attribute name="pos">
            <dia:point val="25.8536,6.46381"/>
          </dia:attribute>
          <dia:attribute name="color">
            <dia:color val="#000000"/>
          </dia:attribute>
          <dia:attribute name="alignment">
            <dia:enum val="0"/>
          </dia:attribute>
        </dia:composite>
      </dia:attribute>
      <dia:attribute name="valign">
        <dia:enum val="3"/>
      </dia:attribute>
    </dia:object>
    <dia:object type="Standard - Text" version="1" id="O16">
      <dia:attribute name="obj_pos">
        <dia:point val="32.9782,6.61077"/>
      </dia:attribute>
      <dia:attribute name="obj_bb">
        <dia:rectangle val="32.9782,6.22577;34.9307,6.70077"/>
      </dia:attribute>
      <dia:attribute name="text">
        <dia:composite type="text">
          <dia:attribute name="string">
            <dia:string>#P1 ACKed#</dia:string>
          </dia:attribute>
          <dia:attribute name="font">
            <dia:font family="Arial" style="0" name="Helvetica"/>
          </dia:attribute>
          <dia:attribute name="height">
            <dia:real val="0.52916664630174637"/>
          </dia:attribute>
          <dia:attribute name="pos">
            <dia:point val="32.9782,6.61077"/>
          </dia:attribute>
          <dia:attribute name="color">
            <dia:color val="#000000"/>
          </dia:attribute>
          <dia:attribute name="alignment">
            <dia:enum val="0"/>
          </dia:attribute>
        </dia:composite>
      </dia:attribute>
      <dia:attribute name="valign">
        <dia:enum val="3"/>
      </dia:attribute>
    </dia:object>
    <dia:object type="Standard - Text" version="1" id="O17">
      <dia:attribute name="obj_pos">
        <dia:point val="19.3828,7.24595"/>
      </dia:attribute>
      <dia:attribute name="obj_bb">
        <dia:rectangle val="19.3828,6.91095;19.7928,7.32595"/>
      </dia:attribute>
      <dia:attribute name="text">
        <dia:composite type="text">
          <dia:attribute name="string">
            <dia:string>#60#</dia:string>
          </dia:attribute>
          <dia:attribute name="font">
            <dia:font family="Arial" style="0" name="Helvetica"/>
          </dia:attribute>
          <dia:attribute name="height">
            <dia:real val="0.46143331288364209"/>
          </dia:attribute>
          <dia:attribute name="pos">
            <dia:point val="19.3828,7.24595"/>
          </dia:attribute>
          <dia:attribute name="color">
            <dia:color val="#616161"/>
          </dia:attribute>
          <dia:attribute name="alignment">
            <dia:enum val="0"/>
          </dia:attribute>
        </dia:composite>
      </dia:attribute>
      <dia:attribute name="valign">
        <dia:enum val="3"/>
      </dia:attribute>
    </dia:object>
    <dia:object type="Standard - Text" version="1" id="O18">
      <dia:attribute name="obj_pos">
        <dia:point val="21.6603,7.27345"/>
      </dia:attribute>
      <dia:attribute name="obj_bb">
        <dia:rectangle val="21.6603,6.93845;22.2753,7.35345"/>
      </dia:attribute>
      <dia:attribute name="text">
        <dia:composite type="text">
          <dia:attribute name="string">
            <dia:string>#120#</dia:string>
          </dia:attribute>
          <dia:attribute name="font">
            <dia:font family="Arial" style="0" name="Helvetica"/>
          </dia:attribute>
          <dia:attribute name="height">
            <dia:real val="0.46143331288364209"/>
          </dia:attribute>
          <dia:attribute name="pos">
            <dia:point val="21.6603,7.27345"/>
          </dia:attribute>
          <dia:attribute name="color">
            <dia:color val="#616161"/>
          </dia:attribute>
          <dia:attribute name="alignment">
            <dia:enum val="0"/>
          </dia:attribute>
        </dia:composite>
      </dia:attribute>
      <dia:attribute name="valign">
        <dia:enum val="3"/>
      </dia:attribute>
    </dia:object>
    <dia:object type="Standard - Text" version="1" id="O19">
      <dia:attribute name="obj_pos">
        <dia:point val="24.1377,7.26595"/>
      </dia:attribute>
      <dia:attribute name="obj_bb">
        <dia:rectangle val="24.1377,6.93095;24.7527,7.34595"/>
      </dia:attribute>
      <dia:attribute name="text">
        <dia:composite type="text">
          <dia:attribute name="string">
            <dia:string>#180#</dia:string>
          </dia:attribute>
          <dia:attribute name="font">
            <dia:font family="Arial" style="0" name="Helvetica"/>
          </dia:attribute>
          <dia:attribute name="height">
            <dia:real val="0.46143331288364209"/>
          </dia:attribute>
          <dia:attribute name="pos">
            <dia:point val="24.1377,7.26595"/>
          </dia:attribute>
          <dia:attribute name="color">
            <dia:color val="#616161"/>
          </dia:attribute>
          <dia:attribute name="alignment">
            <dia:enum val="0"/>
          </dia:attribute>
        </dia:composite>
      </dia:attribute>
      <dia:attribute name="valign">
        <dia:enum val="3"/>
      </dia:attribute>
    </dia:object>
    <dia:object type="Standard - Text" version="1" id="O20">
      <dia:attribute name="obj_pos">
        <dia:point val="26.4652,7.28345"/>
      </dia:attribute>
      <dia:attribute name="obj_bb">
        <dia:rectangle val="26.4652,6.94845;27.0802,7.36345"/>
      </dia:attribute>
      <dia:attribute name="text">
        <dia:composite type="text">
          <dia:attribute name="string">
            <dia:string>#240#</dia:string>
          </dia:attribute>
          <dia:attribute name="font">
            <dia:font family="Arial" style="0" name="Helvetica"/>
          </dia:attribute>
          <dia:attribute name="height">
            <dia:real val="0.46143331288364209"/>
          </dia:attribute>
          <dia:attribute name="pos">
            <dia:point val="26.4652,7.28345"/>
          </dia:attribute>
          <dia:attribute name="color">
            <dia:color val="#616161"/>
          </dia:attribute>
          <dia:attribute name="alignment">
            <dia:enum val="0"/>
          </dia:attribute>
        </dia:composite>
      </dia:attribute>
      <dia:attribute name="valign">
        <dia:enum val="3"/>
      </dia:attribute>
    </dia:object>
    <dia:object type="Standard - Text" version="1" id="O21">
      <dia:attribute name="obj_pos">
        <dia:point val="22.6983,10.6275"/>
      </dia:attribute>
      <dia:attribute name="obj_bb">
        <dia:rectangle val="22.6983,10.2925;23.3133,10.7075"/>
      </dia:attribute>
      <dia:attribute name="text">
        <dia:composite type="text">
          <dia:attribute name="string">
            <dia:string>#150#</dia:string>
          </dia:attribute>
          <dia:attribute name="font">
            <dia:font family="Arial" style="0" name="Helvetica"/>
          </dia:attribute>
          <dia:attribute name="height">
            <dia:real val="0.46143331288364209"/>
          </dia:attribute>
          <dia:attribute name="pos">
            <dia:point val="22.6983,10.6275"/>
          </dia:attribute>
          <dia:attribute name="color">
            <dia:color val="#616161"/>
          </dia:attribute>
          <dia:attribute name="alignment">
            <dia:enum val="0"/>
          </dia:attribute>
        </dia:composite>
      </dia:attribute>
      <dia:attribute name="valign">
        <dia:enum val="3"/>
      </dia:attribute>
    </dia:object>
    <dia:object type="Standard - Text" version="1" id="O22">
      <dia:attribute name="obj_pos">
        <dia:point val="25.1982,10.6025"/>
      </dia:attribute>
      <dia:attribute name="obj_bb">
        <dia:rectangle val="25.1982,10.2675;25.8132,10.6825"/>
      </dia:attribute>
      <dia:attribute name="text">
        <dia:composite type="text">
          <dia:attribute name="string">
            <dia:string>#210#</dia:string>
          </dia:attribute>
          <dia:attribute name="font">
            <dia:font family="Arial" style="0" name="Helvetica"/>
          </dia:attribute>
          <dia:attribute name="height">
            <dia:real val="0.46143331288364209"/>
          </dia:attribute>
          <dia:attribute name="pos">
            <dia:point val="25.1982,10.6025"/>
          </dia:attribute>
          <dia:attribute name="color">
            <dia:color val="#616161"/>
          </dia:attribute>
          <dia:attribute name="alignment">
            <dia:enum val="0"/>
          </dia:attribute>
        </dia:composite>
      </dia:attribute>
      <dia:attribute name="valign">
        <dia:enum val="3"/>
      </dia:attribute>
    </dia:object>
    <dia:object type="Standard - Text" version="1" id="O23">
      <dia:attribute name="obj_pos">
        <dia:point val="16.9828,7.28095"/>
      </dia:attribute>
      <dia:attribute name="obj_bb">
        <dia:rectangle val="16.9828,6.94595;17.1878,7.36095"/>
      </dia:attribute>
      <dia:attribute name="text">
        <dia:composite type="text">
          <dia:attribute name="string">
            <dia:string>#0#</dia:string>
          </dia:attribute>
          <dia:attribute name="font">
            <dia:font family="Arial" style="0" name="Helvetica"/>
          </dia:attribute>
          <dia:attribute name="height">
            <dia:real val="0.46143331288364209"/>
          </dia:attribute>
          <dia:attribute name="pos">
            <dia:point val="16.9828,7.28095"/>
          </dia:attribute>
          <dia:attribute name="color">
            <dia:color val="#616161"/>
          </dia:attribute>
          <dia:attribute name="alignment">
            <dia:enum val="0"/>
          </dia:attribute>
        </dia:composite>
      </dia:attribute>
      <dia:attribute name="valign">
        <dia:enum val="3"/>
      </dia:attribute>
    </dia:object>
    <dia:object type="Standard - Text" version="1" id="O24">
      <dia:attribute name="obj_pos">
        <dia:point val="27.5982,10.5775"/>
      </dia:attribute>
      <dia:attribute name="obj_bb">
        <dia:rectangle val="27.5982,10.2321;28.2236,10.6782"/>
      </dia:attribute>
      <dia:attribute name="text">
        <dia:composite type="text">
          <dia:attribute name="string">
            <dia:string>#270#</dia:string>
          </dia:attribute>
          <dia:attribute name="font">
            <dia:font family="Arial" style="0" name="Helvetica"/>
          </dia:attribute>
          <dia:attribute name="height">
            <dia:real val="0.46143331288364209"/>
          </dia:attribute>
          <dia:attribute name="pos">
            <dia:point val="27.5982,10.5775"/>
          </dia:attribute>
          <dia:attribute name="color">
            <dia:color val="#616161"/>
          </dia:attribute>
          <dia:attribute name="alignment">
            <dia:enum val="0"/>
          </dia:attribute>
        </dia:composite>
      </dia:attribute>
      <dia:attribute name="valign">
        <dia:enum val="3"/>
      </dia:attribute>
    </dia:object>
    <dia:object type="Standard - Text" version="1" id="O25">
      <dia:attribute name="obj_pos">
        <dia:point val="33.6374,7.27059"/>
      </dia:attribute>
      <dia:attribute name="obj_bb">
        <dia:rectangle val="33.6374,6.92522;34.2628,7.37134"/>
      </dia:attribute>
      <dia:attribute name="text">
        <dia:composite type="text">
          <dia:attribute name="string">
            <dia:string>#420#</dia:string>
          </dia:attribute>
          <dia:attribute name="font">
            <dia:font family="Arial" style="0" name="Helvetica"/>
          </dia:attribute>
          <dia:attribute name="height">
            <dia:real val="0.46143331288364209"/>
          </dia:attribute>
          <dia:attribute name="pos">
            <dia:point val="33.6374,7.27059"/>
          </dia:attribute>
          <dia:attribute name="color">
            <dia:color val="#616161"/>
          </dia:attribute>
          <dia:attribute name="alignment">
            <dia:enum val="0"/>
          </dia:attribute>
        </dia:composite>
      </dia:attribute>
      <dia:attribute name="valign">
        <dia:enum val="3"/>
      </dia:attribute>
    </dia:object>
    <dia:object type="Standard - Text" version="1" id="O26">
      <dia:attribute name="obj_pos">
        <dia:point val="20.5101,10.6775"/>
      </dia:attribute>
      <dia:attribute name="obj_bb">
        <dia:rectangle val="20.5101,10.3425;20.9201,10.7575"/>
      </dia:attribute>
      <dia:attribute name="text">
        <dia:composite type="text">
          <dia:attribute name="string">
            <dia:string>#90#</dia:string>
          </dia:attribute>
          <dia:attribute name="font">
            <dia:font family="Arial" style="0" name="Helvetica"/>
          </dia:attribute>
          <dia:attribute name="height">
            <dia:real val="0.46143331288364209"/>
          </dia:attribute>
          <dia:attribute name="pos">
            <dia:point val="20.5101,10.6775"/>
          </dia:attribute>
          <dia:attribute name="color">
            <dia:color val="#616161"/>
          </dia:attribute>
          <dia:attribute name="alignment">
            <dia:enum val="0"/>
          </dia:attribute>
        </dia:composite>
      </dia:attribute>
      <dia:attribute name="valign">
        <dia:enum val="3"/>
      </dia:attribute>
    </dia:object>
    <dia:object type="Standard - Text" version="1" id="O27">
      <dia:attribute name="obj_pos">
        <dia:point val="26.6196,5.39596"/>
      </dia:attribute>
      <dia:attribute name="obj_bb">
        <dia:rectangle val="26.6196,4.81596;30.0296,5.53346"/>
      </dia:attribute>
      <dia:attribute name="text">
        <dia:composite type="text">
          <dia:attribute name="string">
            <dia:string>#Sender side#</dia:string>
          </dia:attribute>
          <dia:attribute name="font">
            <dia:font family="Arial" style="0" name="Helvetica"/>
          </dia:attribute>
          <dia:attribute name="height">
            <dia:real val="0.80000000000000004"/>
          </dia:attribute>
          <dia:attribute name="pos">
            <dia:point val="26.6196,5.39596"/>
          </dia:attribute>
          <dia:attribute name="color">
            <dia:color val="#000000"/>
          </dia:attribute>
          <dia:attribute name="alignment">
            <dia:enum val="0"/>
          </dia:attribute>
        </dia:composite>
      </dia:attribute>
      <dia:attribute name="valign">
        <dia:enum val="3"/>
      </dia:attribute>
    </dia:object>
    <dia:object type="Standard - Text" version="1" id="O28">
      <dia:attribute name="obj_pos">
        <dia:point val="26.4351,12.3675"/>
      </dia:attribute>
      <dia:attribute name="obj_bb">
        <dia:rectangle val="26.4351,11.7875;30.3076,12.505"/>
      </dia:attribute>
      <dia:attribute name="text">
        <dia:composite type="text">
          <dia:attribute name="string">
            <dia:string>#Receiver side#</dia:string>
          </dia:attribute>
          <dia:attribute name="font">
            <dia:font family="Arial" style="0" name="Helvetica"/>
          </dia:attribute>
          <dia:attribute name="height">
            <dia:real val="0.80000000000000004"/>
          </dia:attribute>
          <dia:attribute name="pos">
            <dia:point val="26.4351,12.3675"/>
          </dia:attribute>
          <dia:attribute name="color">
            <dia:color val="#000000"/>
          </dia:attribute>
          <dia:attribute name="alignment">
            <dia:enum val="0"/>
          </dia:attribute>
        </dia:composite>
      </dia:attribute>
      <dia:attribute name="valign">
        <dia:enum val="3"/>
      </dia:attribute>
    </dia:object>
    <dia:object type="Standard - Text" version="1" id="O29">
      <dia:attribute name="obj_pos">
        <dia:point val="29.2675,11.1632"/>
      </dia:attribute>
      <dia:attribute name="obj_bb">
        <dia:rectangle val="29.2675,10.7782;31.5025,11.2532"/>
      </dia:attribute>
      <dia:attribute name="text">
        <dia:composite type="text">
          <dia:attribute name="string">
            <dia:string>#P1 received#</dia:string>
          </dia:attribute>
          <dia:attribute name="font">
            <dia:font family="Arial" style="0" name="Helvetica"/>
          </dia:attribute>
          <dia:attribute name="height">
            <dia:real val="0.52916664630174637"/>
          </dia:attribute>
          <dia:attribute name="pos">
            <dia:point val="29.2675,11.1632"/>
          </dia:attribute>
          <dia:attribute name="color">
            <dia:color val="#33b206"/>
          </dia:attribute>
          <dia:attribute name="alignment">
            <dia:enum val="0"/>
          </dia:attribute>
        </dia:composite>
      </dia:attribute>
      <dia:attribute name="valign">
        <dia:enum val="3"/>
      </dia:attribute>
    </dia:object>
    <dia:object type="Standard - Text" version="1" id="O30">
      <dia:attribute name="obj_pos">
        <dia:point val="20.1111,11.2185"/>
      </dia:attribute>
      <dia:attribute name="obj_bb">
        <dia:rectangle val="20.1111,10.8335;21.4061,11.3085"/>
      </dia:attribute>
      <dia:attribute name="text">
        <dia:composite type="text">
          <dia:attribute name="string">
            <dia:string>#P1 lost#</dia:string>
          </dia:attribute>
          <dia:attribute name="font">
            <dia:font family="Arial" style="0" name="Helvetica"/>
          </dia:attribute>
          <dia:attribute name="height">
            <dia:real val="0.52916664630174637"/>
          </dia:attribute>
          <dia:attribute name="pos">
            <dia:point val="20.1111,11.2185"/>
          </dia:attribute>
          <dia:attribute name="color">
            <dia:color val="#ff0000"/>
          </dia:attribute>
          <dia:attribute name="alignment">
            <dia:enum val="0"/>
          </dia:attribute>
        </dia:composite>
      </dia:attribute>
      <dia:attribute name="valign">
        <dia:enum val="3"/>
      </dia:attribute>
    </dia:object>
    <dia:object type="Standard - Line" version="0" id="O31">
      <dia:attribute name="obj_pos">
        <dia:point val="26.8024,7.55087"/>
      </dia:attribute>
      <dia:attribute name="obj_bb">
        <dia:rectangle val="26.7468,7.49526;30.4436,10.051"/>
      </dia:attribute>
      <dia:attribute name="conn_endpoints">
        <dia:point val="26.8024,7.55087"/>
        <dia:point val="30.3698,9.99541"/>
      </dia:attribute>
      <dia:attribute name="numcp">
        <dia:int val="1"/>
      </dia:attribute>
      <dia:attribute name="line_width">
        <dia:real val="0.079999998211860657"/>
      </dia:attribute>
      <dia:attribute name="end_arrow">
        <dia:enum val="22"/>
      </dia:attribute>
      <dia:attribute name="end_arrow_length">
        <dia:real val="0.30000000000000004"/>
      </dia:attribute>
      <dia:attribute name="end_arrow_width">
        <dia:real val="0.30000000000000004"/>
      </dia:attribute>
      <dia:connections>
        <dia:connection handle="0" to="O2" connection="16"/>
        <dia:connection handle="1" to="O0" connection="22"/>
      </dia:connections>
    </dia:object>
    <dia:object type="Standard - Text" version="1" id="O32">
      <dia:attribute name="obj_pos">
        <dia:point val="29.9993,10.5672"/>
      </dia:attribute>
      <dia:attribute name="obj_bb">
        <dia:rectangle val="29.9993,10.2218;30.6247,10.6679"/>
      </dia:attribute>
      <dia:attribute name="text">
        <dia:composite type="text">
          <dia:attribute name="string">
            <dia:string>#330#</dia:string>
          </dia:attribute>
          <dia:attribute name="font">
            <dia:font family="Arial" style="0" name="Helvetica"/>
          </dia:attribute>
          <dia:attribute name="height">
            <dia:real val="0.46143331288364209"/>
          </dia:attribute>
          <dia:attribute name="pos">
            <dia:point val="29.9993,10.5672"/>
          </dia:attribute>
          <dia:attribute name="color">
            <dia:color val="#616161"/>
          </dia:attribute>
          <dia:attribute name="alignment">
            <dia:enum val="0"/>
          </dia:attribute>
        </dia:composite>
      </dia:attribute>
      <dia:attribute name="valign">
        <dia:enum val="3"/>
      </dia:attribute>
    </dia:object>
  </dia:layer>
</dia:diagram>
