%!PS-Adobe-2.0 EPSF-2.0
%%Title: PacketsPerRTT-stream-by-pktrtt.eps
%%Creator: gnuplot 4.0 patchlevel 0
%%CreationDate: Wed Feb 15 11:43:41 2006
%%DocumentFonts: (atend)
%%BoundingBox: 50 50 410 302
%%Orientation: Portrait
%%EndComments
/gnudict 256 dict def
gnudict begin
/Color false def
/Solid false def
/gnulinewidth 5.000 def
/userlinewidth gnulinewidth def
/vshift -60 def
/dl {10.0 mul} def
/hpt_ 31.5 def
/vpt_ 31.5 def
/hpt hpt_ def
/vpt vpt_ def
/Rounded false def
/M {moveto} bind def
/L {lineto} bind def
/R {rmoveto} bind def
/V {rlineto} bind def
/N {newpath moveto} bind def
/C {setrgbcolor} bind def
/f {rlineto fill} bind def
/vpt2 vpt 2 mul def
/hpt2 hpt 2 mul def
/Lshow { currentpoint stroke M
  0 vshift R show } def
/Rshow { currentpoint stroke M
  dup stringwidth pop neg vshift R show } def
/Cshow { currentpoint stroke M
  dup stringwidth pop -2 div vshift R show } def
/UP { dup vpt_ mul /vpt exch def hpt_ mul /hpt exch def
  /hpt2 hpt 2 mul def /vpt2 vpt 2 mul def } def
/DL { Color {setrgbcolor Solid {pop []} if 0 setdash }
 {pop pop pop 0 setgray Solid {pop []} if 0 setdash} ifelse } def
/BL { stroke userlinewidth 2 mul setlinewidth
      Rounded { 1 setlinejoin 1 setlinecap } if } def
/AL { stroke userlinewidth 2 div setlinewidth
      Rounded { 1 setlinejoin 1 setlinecap } if } def
/UL { dup gnulinewidth mul /userlinewidth exch def
      dup 1 lt {pop 1} if 10 mul /udl exch def } def
/PL { stroke userlinewidth setlinewidth
      Rounded { 1 setlinejoin 1 setlinecap } if } def
/LTw { PL [] 1 setgray } def
/LTb { BL [] 0 0 0 DL } def
/LTa { AL [1 udl mul 2 udl mul] 0 setdash 0 0 0 setrgbcolor } def
/LT0 { PL [] 1 0 0 DL } def
/LT1 { PL [4 dl 2 dl] 0 1 0 DL } def
/LT2 { PL [2 dl 3 dl] 0 0 1 DL } def
/LT3 { PL [1 dl 1.5 dl] 1 0 1 DL } def
/LT4 { PL [5 dl 2 dl 1 dl 2 dl] 0 1 1 DL } def
/LT5 { PL [4 dl 3 dl 1 dl 3 dl] 1 1 0 DL } def
/LT6 { PL [2 dl 2 dl 2 dl 4 dl] 0 0 0 DL } def
/LT7 { PL [2 dl 2 dl 2 dl 2 dl 2 dl 4 dl] 1 0.3 0 DL } def
/LT8 { PL [2 dl 2 dl 2 dl 2 dl 2 dl 2 dl 2 dl 4 dl] 0.5 0.5 0.5 DL } def
/Pnt { stroke [] 0 setdash
   gsave 1 setlinecap M 0 0 V stroke grestore } def
/Dia { stroke [] 0 setdash 2 copy vpt add M
  hpt neg vpt neg V hpt vpt neg V
  hpt vpt V hpt neg vpt V closepath stroke
  Pnt } def
/Pls { stroke [] 0 setdash vpt sub M 0 vpt2 V
  currentpoint stroke M
  hpt neg vpt neg R hpt2 0 V stroke
  } def
/Box { stroke [] 0 setdash 2 copy exch hpt sub exch vpt add M
  0 vpt2 neg V hpt2 0 V 0 vpt2 V
  hpt2 neg 0 V closepath stroke
  Pnt } def
/Crs { stroke [] 0 setdash exch hpt sub exch vpt add M
  hpt2 vpt2 neg V currentpoint stroke M
  hpt2 neg 0 R hpt2 vpt2 V stroke } def
/TriU { stroke [] 0 setdash 2 copy vpt 1.12 mul add M
  hpt neg vpt -1.62 mul V
  hpt 2 mul 0 V
  hpt neg vpt 1.62 mul V closepath stroke
  Pnt  } def
/Star { 2 copy Pls Crs } def
/BoxF { stroke [] 0 setdash exch hpt sub exch vpt add M
  0 vpt2 neg V  hpt2 0 V  0 vpt2 V
  hpt2 neg 0 V  closepath fill } def
/TriUF { stroke [] 0 setdash vpt 1.12 mul add M
  hpt neg vpt -1.62 mul V
  hpt 2 mul 0 V
  hpt neg vpt 1.62 mul V closepath fill } def
/TriD { stroke [] 0 setdash 2 copy vpt 1.12 mul sub M
  hpt neg vpt 1.62 mul V
  hpt 2 mul 0 V
  hpt neg vpt -1.62 mul V closepath stroke
  Pnt  } def
/TriDF { stroke [] 0 setdash vpt 1.12 mul sub M
  hpt neg vpt 1.62 mul V
  hpt 2 mul 0 V
  hpt neg vpt -1.62 mul V closepath fill} def
/DiaF { stroke [] 0 setdash vpt add M
  hpt neg vpt neg V hpt vpt neg V
  hpt vpt V hpt neg vpt V closepath fill } def
/Pent { stroke [] 0 setdash 2 copy gsave
  translate 0 hpt M 4 {72 rotate 0 hpt L} repeat
  closepath stroke grestore Pnt } def
/PentF { stroke [] 0 setdash gsave
  translate 0 hpt M 4 {72 rotate 0 hpt L} repeat
  closepath fill grestore } def
/Circle { stroke [] 0 setdash 2 copy
  hpt 0 360 arc stroke Pnt } def
/CircleF { stroke [] 0 setdash hpt 0 360 arc fill } def
/C0 { BL [] 0 setdash 2 copy moveto vpt 90 450  arc } bind def
/C1 { BL [] 0 setdash 2 copy        moveto
       2 copy  vpt 0 90 arc closepath fill
               vpt 0 360 arc closepath } bind def
/C2 { BL [] 0 setdash 2 copy moveto
       2 copy  vpt 90 180 arc closepath fill
               vpt 0 360 arc closepath } bind def
/C3 { BL [] 0 setdash 2 copy moveto
       2 copy  vpt 0 180 arc closepath fill
               vpt 0 360 arc closepath } bind def
/C4 { BL [] 0 setdash 2 copy moveto
       2 copy  vpt 180 270 arc closepath fill
               vpt 0 360 arc closepath } bind def
/C5 { BL [] 0 setdash 2 copy moveto
       2 copy  vpt 0 90 arc
       2 copy moveto
       2 copy  vpt 180 270 arc closepath fill
               vpt 0 360 arc } bind def
/C6 { BL [] 0 setdash 2 copy moveto
      2 copy  vpt 90 270 arc closepath fill
              vpt 0 360 arc closepath } bind def
/C7 { BL [] 0 setdash 2 copy moveto
      2 copy  vpt 0 270 arc closepath fill
              vpt 0 360 arc closepath } bind def
/C8 { BL [] 0 setdash 2 copy moveto
      2 copy vpt 270 360 arc closepath fill
              vpt 0 360 arc closepath } bind def
/C9 { BL [] 0 setdash 2 copy moveto
      2 copy  vpt 270 450 arc closepath fill
              vpt 0 360 arc closepath } bind def
/C10 { BL [] 0 setdash 2 copy 2 copy moveto vpt 270 360 arc closepath fill
       2 copy moveto
       2 copy vpt 90 180 arc closepath fill
               vpt 0 360 arc closepath } bind def
/C11 { BL [] 0 setdash 2 copy moveto
       2 copy  vpt 0 180 arc closepath fill
       2 copy moveto
       2 copy  vpt 270 360 arc closepath fill
               vpt 0 360 arc closepath } bind def
/C12 { BL [] 0 setdash 2 copy moveto
       2 copy  vpt 180 360 arc closepath fill
               vpt 0 360 arc closepath } bind def
/C13 { BL [] 0 setdash  2 copy moveto
       2 copy  vpt 0 90 arc closepath fill
       2 copy moveto
       2 copy  vpt 180 360 arc closepath fill
               vpt 0 360 arc closepath } bind def
/C14 { BL [] 0 setdash 2 copy moveto
       2 copy  vpt 90 360 arc closepath fill
               vpt 0 360 arc } bind def
/C15 { BL [] 0 setdash 2 copy vpt 0 360 arc closepath fill
               vpt 0 360 arc closepath } bind def
/Rec   { newpath 4 2 roll moveto 1 index 0 rlineto 0 exch rlineto
       neg 0 rlineto closepath } bind def
/Square { dup Rec } bind def
/Bsquare { vpt sub exch vpt sub exch vpt2 Square } bind def
/S0 { BL [] 0 setdash 2 copy moveto 0 vpt rlineto BL Bsquare } bind def
/S1 { BL [] 0 setdash 2 copy vpt Square fill Bsquare } bind def
/S2 { BL [] 0 setdash 2 copy exch vpt sub exch vpt Square fill Bsquare } bind def
/S3 { BL [] 0 setdash 2 copy exch vpt sub exch vpt2 vpt Rec fill Bsquare } bind def
/S4 { BL [] 0 setdash 2 copy exch vpt sub exch vpt sub vpt Square fill Bsquare } bind def
/S5 { BL [] 0 setdash 2 copy 2 copy vpt Square fill
       exch vpt sub exch vpt sub vpt Square fill Bsquare } bind def
/S6 { BL [] 0 setdash 2 copy exch vpt sub exch vpt sub vpt vpt2 Rec fill Bsquare } bind def
/S7 { BL [] 0 setdash 2 copy exch vpt sub exch vpt sub vpt vpt2 Rec fill
       2 copy vpt Square fill
       Bsquare } bind def
/S8 { BL [] 0 setdash 2 copy vpt sub vpt Square fill Bsquare } bind def
/S9 { BL [] 0 setdash 2 copy vpt sub vpt vpt2 Rec fill Bsquare } bind def
/S10 { BL [] 0 setdash 2 copy vpt sub vpt Square fill 2 copy exch vpt sub exch vpt Square fill
       Bsquare } bind def
/S11 { BL [] 0 setdash 2 copy vpt sub vpt Square fill 2 copy exch vpt sub exch vpt2 vpt Rec fill
       Bsquare } bind def
/S12 { BL [] 0 setdash 2 copy exch vpt sub exch vpt sub vpt2 vpt Rec fill Bsquare } bind def
/S13 { BL [] 0 setdash 2 copy exch vpt sub exch vpt sub vpt2 vpt Rec fill
       2 copy vpt Square fill Bsquare } bind def
/S14 { BL [] 0 setdash 2 copy exch vpt sub exch vpt sub vpt2 vpt Rec fill
       2 copy exch vpt sub exch vpt Square fill Bsquare } bind def
/S15 { BL [] 0 setdash 2 copy Bsquare fill Bsquare } bind def
/D0 { gsave translate 45 rotate 0 0 S0 stroke grestore } bind def
/D1 { gsave translate 45 rotate 0 0 S1 stroke grestore } bind def
/D2 { gsave translate 45 rotate 0 0 S2 stroke grestore } bind def
/D3 { gsave translate 45 rotate 0 0 S3 stroke grestore } bind def
/D4 { gsave translate 45 rotate 0 0 S4 stroke grestore } bind def
/D5 { gsave translate 45 rotate 0 0 S5 stroke grestore } bind def
/D6 { gsave translate 45 rotate 0 0 S6 stroke grestore } bind def
/D7 { gsave translate 45 rotate 0 0 S7 stroke grestore } bind def
/D8 { gsave translate 45 rotate 0 0 S8 stroke grestore } bind def
/D9 { gsave translate 45 rotate 0 0 S9 stroke grestore } bind def
/D10 { gsave translate 45 rotate 0 0 S10 stroke grestore } bind def
/D11 { gsave translate 45 rotate 0 0 S11 stroke grestore } bind def
/D12 { gsave translate 45 rotate 0 0 S12 stroke grestore } bind def
/D13 { gsave translate 45 rotate 0 0 S13 stroke grestore } bind def
/D14 { gsave translate 45 rotate 0 0 S14 stroke grestore } bind def
/D15 { gsave translate 45 rotate 0 0 S15 stroke grestore } bind def
/DiaE { stroke [] 0 setdash vpt add M
  hpt neg vpt neg V hpt vpt neg V
  hpt vpt V hpt neg vpt V closepath stroke } def
/BoxE { stroke [] 0 setdash exch hpt sub exch vpt add M
  0 vpt2 neg V hpt2 0 V 0 vpt2 V
  hpt2 neg 0 V closepath stroke } def
/TriUE { stroke [] 0 setdash vpt 1.12 mul add M
  hpt neg vpt -1.62 mul V
  hpt 2 mul 0 V
  hpt neg vpt 1.62 mul V closepath stroke } def
/TriDE { stroke [] 0 setdash vpt 1.12 mul sub M
  hpt neg vpt 1.62 mul V
  hpt 2 mul 0 V
  hpt neg vpt -1.62 mul V closepath stroke } def
/PentE { stroke [] 0 setdash gsave
  translate 0 hpt M 4 {72 rotate 0 hpt L} repeat
  closepath stroke grestore } def
/CircE { stroke [] 0 setdash 
  hpt 0 360 arc stroke } def
/Opaque { gsave closepath 1 setgray fill grestore 0 setgray closepath } def
/DiaW { stroke [] 0 setdash vpt add M
  hpt neg vpt neg V hpt vpt neg V
  hpt vpt V hpt neg vpt V Opaque stroke } def
/BoxW { stroke [] 0 setdash exch hpt sub exch vpt add M
  0 vpt2 neg V hpt2 0 V 0 vpt2 V
  hpt2 neg 0 V Opaque stroke } def
/TriUW { stroke [] 0 setdash vpt 1.12 mul add M
  hpt neg vpt -1.62 mul V
  hpt 2 mul 0 V
  hpt neg vpt 1.62 mul V Opaque stroke } def
/TriDW { stroke [] 0 setdash vpt 1.12 mul sub M
  hpt neg vpt 1.62 mul V
  hpt 2 mul 0 V
  hpt neg vpt -1.62 mul V Opaque stroke } def
/PentW { stroke [] 0 setdash gsave
  translate 0 hpt M 4 {72 rotate 0 hpt L} repeat
  Opaque stroke grestore } def
/CircW { stroke [] 0 setdash 
  hpt 0 360 arc Opaque stroke } def
/BoxFill { gsave Rec 1 setgray fill grestore } def
/BoxColFill {
  gsave Rec
  /Fillden exch def
  currentrgbcolor
  /ColB exch def /ColG exch def /ColR exch def
  /ColR ColR Fillden mul Fillden sub 1 add def
  /ColG ColG Fillden mul Fillden sub 1 add def
  /ColB ColB Fillden mul Fillden sub 1 add def
  ColR ColG ColB setrgbcolor
  fill grestore } def
%
% PostScript Level 1 Pattern Fill routine
% Usage: x y w h s a XX PatternFill
%	x,y = lower left corner of box to be filled
%	w,h = width and height of box
%	  a = angle in degrees between lines and x-axis
%	 XX = 0/1 for no/yes cross-hatch
%
/PatternFill { gsave /PFa [ 9 2 roll ] def
    PFa 0 get PFa 2 get 2 div add PFa 1 get PFa 3 get 2 div add translate
    PFa 2 get -2 div PFa 3 get -2 div PFa 2 get PFa 3 get Rec
    gsave 1 setgray fill grestore clip
    currentlinewidth 0.5 mul setlinewidth
    /PFs PFa 2 get dup mul PFa 3 get dup mul add sqrt def
    0 0 M PFa 5 get rotate PFs -2 div dup translate
	0 1 PFs PFa 4 get div 1 add floor cvi
	{ PFa 4 get mul 0 M 0 PFs V } for
    0 PFa 6 get ne {
	0 1 PFs PFa 4 get div 1 add floor cvi
	{ PFa 4 get mul 0 2 1 roll M PFs 0 V } for
    } if
    stroke grestore } def
%
/Symbol-Oblique /Symbol findfont [1 0 .167 1 0 0] makefont
dup length dict begin {1 index /FID eq {pop pop} {def} ifelse} forall
currentdict end definefont pop
end
%%EndProlog
gnudict begin
gsave
50 50 translate
0.050 0.050 scale
0 setgray
newpath
(Helvetica) findfont 180 scalefont setfont
1.000 UL
LTb
918 540 M
63 0 V
5913 0 R
-63 0 V
810 540 M
gsave 0 setgray
( 0) Rshow
grestore
1.000 UL
LTb
918 1254 M
63 0 V
5913 0 R
-63 0 V
-6021 0 R
gsave 0 setgray
( 0.2) Rshow
grestore
1.000 UL
LTb
918 1968 M
63 0 V
5913 0 R
-63 0 V
-6021 0 R
gsave 0 setgray
( 0.4) Rshow
grestore
1.000 UL
LTb
918 2682 M
63 0 V
5913 0 R
-63 0 V
-6021 0 R
gsave 0 setgray
( 0.6) Rshow
grestore
1.000 UL
LTb
918 3396 M
63 0 V
5913 0 R
-63 0 V
-6021 0 R
gsave 0 setgray
( 0.8) Rshow
grestore
1.000 UL
LTb
918 4110 M
63 0 V
5913 0 R
-63 0 V
-6021 0 R
gsave 0 setgray
( 1) Rshow
grestore
1.000 UL
LTb
918 4824 M
63 0 V
5913 0 R
-63 0 V
-6021 0 R
gsave 0 setgray
( 1.2) Rshow
grestore
1.000 UL
LTb
918 540 M
0 63 V
0 4221 R
0 -63 V
918 360 M
gsave 0 setgray
( 0) Cshow
grestore
1.000 UL
LTb
1582 540 M
0 63 V
0 4221 R
0 -63 V
0 -4401 R
gsave 0 setgray
( 20) Cshow
grestore
1.000 UL
LTb
2246 540 M
0 63 V
0 4221 R
0 -63 V
0 -4401 R
gsave 0 setgray
( 40) Cshow
grestore
1.000 UL
LTb
2910 540 M
0 63 V
0 4221 R
0 -63 V
0 -4401 R
gsave 0 setgray
( 60) Cshow
grestore
1.000 UL
LTb
3574 540 M
0 63 V
0 4221 R
0 -63 V
0 -4401 R
gsave 0 setgray
( 80) Cshow
grestore
1.000 UL
LTb
4238 540 M
0 63 V
0 4221 R
0 -63 V
0 -4401 R
gsave 0 setgray
( 100) Cshow
grestore
1.000 UL
LTb
4902 540 M
0 63 V
0 4221 R
0 -63 V
0 -4401 R
gsave 0 setgray
( 120) Cshow
grestore
1.000 UL
LTb
5566 540 M
0 63 V
0 4221 R
0 -63 V
0 -4401 R
gsave 0 setgray
( 140) Cshow
grestore
1.000 UL
LTb
6230 540 M
0 63 V
0 4221 R
0 -63 V
0 -4401 R
gsave 0 setgray
( 160) Cshow
grestore
1.000 UL
LTb
6894 540 M
0 63 V
0 4221 R
0 -63 V
0 -4401 R
gsave 0 setgray
( 180) Cshow
grestore
1.000 UL
LTb
1.000 UL
LTb
918 540 M
5976 0 V
0 4284 V
-5976 0 V
918 540 L
LTb
180 2682 M
gsave 0 setgray
currentpoint gsave translate 90 rotate 0 0 M
(number of packets per RTT) Cshow
grestore
grestore
LTb
3906 90 M
gsave 0 setgray
(connection RTTs sorted by packets/RTT) Cshow
grestore
1.000 UP
1.000 UP
1.000 UL
LT0
918 650 M
33 107 V
33 58 V
34 4 V
33 99 V
33 41 V
33 8 V
33 60 V
34 57 V
33 2 V
33 11 V
33 83 V
33 4 V
34 18 V
33 18 V
33 35 V
33 3 V
33 4 V
34 0 V
33 11 V
33 6 V
33 47 V
33 3 V
34 28 V
33 33 V
33 10 V
33 3 V
33 5 V
34 2 V
33 3 V
33 6 V
33 21 V
33 7 V
34 21 V
33 11 V
33 0 V
33 25 V
33 0 V
34 9 V
33 3 V
33 9 V
33 1 V
33 15 V
34 2 V
33 7 V
33 1 V
33 13 V
33 1 V
34 12 V
33 1 V
33 5 V
33 28 V
33 5 V
34 5 V
33 7 V
33 9 V
33 7 V
33 3 V
34 17 V
33 11 V
33 2 V
33 7 V
33 8 V
34 5 V
33 2 V
33 19 V
33 24 V
33 4 V
34 16 V
33 5 V
33 8 V
33 6 V
33 1 V
34 11 V
33 6 V
33 11 V
33 51 V
33 16 V
34 14 V
33 1 V
33 14 V
33 13 V
33 1 V
34 3 V
33 13 V
33 3 V
33 8 V
33 6 V
34 4 V
33 13 V
33 15 V
33 0 V
33 5 V
34 3 V
33 5 V
33 1 V
33 8 V
33 11 V
34 6 V
33 8 V
33 11 V
33 10 V
33 1 V
34 1 V
33 5 V
stroke
4371 2060 M
33 5 V
33 11 V
33 12 V
34 10 V
33 13 V
33 1 V
33 8 V
33 7 V
34 18 V
33 9 V
33 4 V
33 4 V
33 3 V
34 9 V
33 43 V
33 5 V
33 3 V
33 9 V
34 3 V
33 34 V
33 3 V
33 26 V
33 3 V
34 6 V
33 42 V
33 9 V
33 8 V
33 35 V
34 14 V
33 6 V
33 19 V
33 123 V
33 9 V
34 1 V
33 10 V
33 23 V
33 15 V
33 10 V
34 14 V
33 16 V
33 2 V
33 8 V
33 6 V
34 3 V
33 2 V
33 15 V
33 0 V
33 12 V
34 2 V
33 6 V
33 16 V
33 8 V
33 3 V
34 11 V
33 1 V
33 5 V
33 6 V
33 13 V
34 7 V
33 88 V
33 0 V
33 33 V
33 35 V
34 30 V
33 33 V
33 13 V
33 84 V
33 40 V
34 8 V
33 39 V
33 752 V
918 628 M
0 43 V
887 628 M
62 0 V
-62 43 R
62 0 V
2 35 R
0 102 V
920 706 M
62 0 V
920 808 M
62 0 V
2 -105 R
0 224 V
953 703 M
62 0 V
953 927 M
62 0 V
3 -199 R
0 182 V
987 728 M
62 0 V
987 910 M
62 0 V
2 -116 R
0 249 V
1020 794 M
62 0 V
-62 249 R
62 0 V
2 -119 R
0 70 V
-31 -70 R
62 0 V
stroke
1053 994 M
62 0 V
2 -101 R
0 149 V
1086 893 M
62 0 V
-62 149 R
62 0 V
2 -125 R
0 219 V
1119 917 M
62 0 V
-62 219 R
62 0 V
3 -167 R
0 230 V
1153 969 M
62 0 V
-62 230 R
62 0 V
2 -228 R
0 230 V
1186 971 M
62 0 V
-62 230 R
62 0 V
2 -205 R
0 202 V
1219 996 M
62 0 V
-62 202 R
62 0 V
2 -221 R
0 407 V
1252 977 M
62 0 V
-62 407 R
62 0 V
2 -280 R
0 160 V
-31 -160 R
62 0 V
-62 160 R
62 0 V
3 -168 R
0 212 V
-31 -212 R
62 0 V
-62 212 R
62 0 V
2 -269 R
0 361 V
-31 -361 R
62 0 V
-62 361 R
62 0 V
2 -351 R
0 412 V
-31 -412 R
62 0 V
-62 412 R
62 0 V
2 -355 R
0 305 V
-31 -305 R
62 0 V
-62 305 R
62 0 V
2 -463 R
0 627 V
1451 948 M
62 0 V
-62 627 R
62 0 V
3 -569 R
0 512 V
-31 -512 R
62 0 V
-62 512 R
62 0 V
2 -389 R
0 288 V
-31 -288 R
62 0 V
-62 288 R
62 0 V
2 -296 R
0 317 V
-31 -317 R
62 0 V
-62 317 R
62 0 V
2 -453 R
0 682 V
1584 985 M
62 0 V
-62 682 R
62 0 V
2 -506 R
0 335 V
-31 -335 R
62 0 V
-62 335 R
62 0 V
3 -302 R
0 327 V
stroke
1651 1194 M
62 0 V
-62 327 R
62 0 V
2 -357 R
0 453 V
-31 -453 R
62 0 V
-62 453 R
62 0 V
2 -423 R
0 412 V
-31 -412 R
62 0 V
-62 412 R
62 0 V
2 -415 R
0 424 V
-31 -424 R
62 0 V
-62 424 R
62 0 V
2 -628 R
0 843 V
1783 987 M
62 0 V
-62 843 R
62 0 V
3 -577 R
0 313 V
-31 -313 R
62 0 V
-62 313 R
62 0 V
2 -338 R
0 369 V
-31 -369 R
62 0 V
-62 369 R
62 0 V
2 -360 R
0 365 V
-31 -365 R
62 0 V
-62 365 R
62 0 V
2 -469 R
0 614 V
-31 -614 R
62 0 V
-62 614 R
62 0 V
2 -520 R
0 441 V
-31 -441 R
62 0 V
-62 441 R
62 0 V
3 -387 R
0 375 V
-31 -375 R
62 0 V
-62 375 R
62 0 V
2 -447 R
0 539 V
-31 -539 R
62 0 V
-62 539 R
62 0 V
2 -389 R
0 240 V
-31 -240 R
62 0 V
-62 240 R
62 0 V
2 -380 R
0 571 V
-31 -571 R
62 0 V
-62 571 R
62 0 V
2 -496 R
0 421 V
-31 -421 R
62 0 V
-62 421 R
62 0 V
3 -409 R
0 413 V
-31 -413 R
62 0 V
-62 413 R
62 0 V
2 -409 R
0 411 V
-31 -411 R
62 0 V
-62 411 R
62 0 V
2 -466 R
0 540 V
-31 -540 R
62 0 V
-62 540 R
62 0 V
stroke
2279 1332 M
0 389 V
-31 -389 R
62 0 V
-62 389 R
62 0 V
2 -373 R
0 387 V
-31 -387 R
62 0 V
-62 387 R
62 0 V
3 -391 R
0 398 V
-31 -398 R
62 0 V
-62 398 R
62 0 V
2 -351 R
0 318 V
-31 -318 R
62 0 V
-62 318 R
62 0 V
2 -506 R
0 697 V
-31 -697 R
62 0 V
-62 697 R
62 0 V
2 -559 R
0 447 V
-31 -447 R
62 0 V
-62 447 R
62 0 V
2 -378 R
0 309 V
-31 -309 R
62 0 V
-62 309 R
62 0 V
3 -275 R
0 265 V
-31 -265 R
62 0 V
-62 265 R
62 0 V
2 -377 R
0 493 V
-31 -493 R
62 0 V
-62 493 R
62 0 V
2 -616 R
0 748 V
-31 -748 R
62 0 V
-62 748 R
62 0 V
2 -570 R
0 449 V
-31 -449 R
62 0 V
-62 449 R
62 0 V
2 -459 R
0 477 V
-31 -477 R
62 0 V
-62 477 R
62 0 V
3 -657 R
0 848 V
-31 -848 R
62 0 V
-62 848 R
62 0 V
2 -767 R
0 699 V
-31 -699 R
62 0 V
-62 699 R
62 0 V
2 -585 R
0 490 V
-31 -490 R
62 0 V
-62 490 R
62 0 V
2 -501 R
0 526 V
-31 -526 R
62 0 V
-62 526 R
62 0 V
2 -393 R
0 266 V
-31 -266 R
62 0 V
-62 266 R
62 0 V
3 -336 R
0 439 V
-31 -439 R
62 0 V
stroke
2813 1883 M
62 0 V
2 -420 R
0 424 V
-31 -424 R
62 0 V
-62 424 R
62 0 V
2 -424 R
0 429 V
-31 -429 R
62 0 V
-62 429 R
62 0 V
2 -553 R
0 689 V
-31 -689 R
62 0 V
-62 689 R
62 0 V
2 -576 R
0 480 V
-31 -480 R
62 0 V
-62 480 R
62 0 V
3 -484 R
0 498 V
-31 -498 R
62 0 V
-62 498 R
62 0 V
2 -567 R
0 640 V
-31 -640 R
62 0 V
-62 640 R
62 0 V
2 -561 R
0 520 V
-31 -520 R
62 0 V
-62 520 R
62 0 V
2 -845 R
0 1217 V
3078 1133 M
62 0 V
-62 1217 R
62 0 V
2 -826 R
0 443 V
-31 -443 R
62 0 V
-62 443 R
62 0 V
3 -480 R
0 551 V
-31 -551 R
62 0 V
-62 551 R
62 0 V
2 -466 R
0 389 V
-31 -389 R
62 0 V
-62 389 R
62 0 V
2 -346 R
0 321 V
-31 -321 R
62 0 V
-62 321 R
62 0 V
2 -408 R
0 506 V
-31 -506 R
62 0 V
-62 506 R
62 0 V
2 -468 R
0 431 V
-31 -431 R
62 0 V
-62 431 R
62 0 V
3 -665 R
0 922 V
-31 -922 R
62 0 V
-62 922 R
62 0 V
2 -726 R
0 542 V
-31 -542 R
62 0 V
-62 542 R
62 0 V
2 -757 R
0 993 V
-31 -993 R
62 0 V
-62 993 R
62 0 V
2 -649 R
0 408 V
stroke
3410 1657 M
62 0 V
-62 408 R
62 0 V
2 -476 R
0 575 V
-31 -575 R
62 0 V
-62 575 R
62 0 V
3 -864 R
0 1182 V
3477 1300 M
62 0 V
-62 1182 R
62 0 V
2 -825 R
0 469 V
-31 -469 R
62 0 V
-62 469 R
62 0 V
2 -422 R
0 403 V
-31 -403 R
62 0 V
-62 403 R
62 0 V
2 -416 R
0 456 V
-31 -456 R
62 0 V
-62 456 R
62 0 V
2 -461 R
0 467 V
-31 -467 R
62 0 V
-62 467 R
62 0 V
3 -570 R
0 680 V
-31 -680 R
62 0 V
-62 680 R
62 0 V
2 -683 R
0 712 V
-31 -712 R
62 0 V
-62 712 R
62 0 V
2 -572 R
0 437 V
-31 -437 R
62 0 V
-62 437 R
62 0 V
2 -491 R
0 562 V
-31 -562 R
62 0 V
-62 562 R
62 0 V
2 -957 R
0 1364 V
3775 1271 M
62 0 V
-62 1364 R
62 0 V
3 -895 R
0 434 V
-31 -434 R
62 0 V
-62 434 R
62 0 V
2 -512 R
0 616 V
-31 -616 R
62 0 V
-62 616 R
62 0 V
2 -562 R
0 538 V
-31 -538 R
62 0 V
-62 538 R
62 0 V
2 -597 R
0 657 V
-31 -657 R
62 0 V
-62 657 R
62 0 V
2 -671 R
0 693 V
-31 -693 R
62 0 V
-62 693 R
62 0 V
3 -722 R
0 759 V
-31 -759 R
62 0 V
-62 759 R
62 0 V
stroke
4039 1616 M
0 764 V
-31 -764 R
62 0 V
-62 764 R
62 0 V
2 -720 R
0 677 V
-31 -677 R
62 0 V
-62 677 R
62 0 V
2 -728 R
0 797 V
-31 -797 R
62 0 V
-62 797 R
62 0 V
2 -693 R
0 609 V
-31 -609 R
62 0 V
-62 609 R
62 0 V
3 -627 R
0 659 V
-31 -659 R
62 0 V
-62 659 R
62 0 V
2 -620 R
0 596 V
-31 -596 R
62 0 V
-62 596 R
62 0 V
2 -518 R
0 462 V
-31 -462 R
62 0 V
-62 462 R
62 0 V
2 -658 R
0 874 V
-31 -874 R
62 0 V
-62 874 R
62 0 V
2 -650 R
0 427 V
-31 -427 R
62 0 V
-62 427 R
62 0 V
3 -615 R
0 805 V
-31 -805 R
62 0 V
-62 805 R
62 0 V
2 -874 R
0 955 V
-31 -955 R
62 0 V
-62 955 R
62 0 V
2 -761 R
0 576 V
-31 -576 R
62 0 V
-62 576 R
62 0 V
2 -605 R
0 655 V
-31 -655 R
62 0 V
-62 655 R
62 0 V
2 -681 R
0 732 V
-31 -732 R
62 0 V
-62 732 R
62 0 V
3 -877 R
0 1042 V
4473 1577 M
62 0 V
-62 1042 R
62 0 V
2 -834 R
0 652 V
-31 -652 R
62 0 V
-62 652 R
62 0 V
2 -605 R
0 559 V
-31 -559 R
62 0 V
-62 559 R
62 0 V
2 -626 R
0 711 V
-31 -711 R
62 0 V
stroke
4572 2476 M
62 0 V
2 -692 R
0 685 V
-31 -685 R
62 0 V
-62 685 R
62 0 V
3 -709 R
0 769 V
-31 -769 R
62 0 V
-62 769 R
62 0 V
2 -677 R
0 604 V
-31 -604 R
62 0 V
-62 604 R
62 0 V
2 -809 R
0 1023 V
4705 1647 M
62 0 V
-62 1023 R
62 0 V
2 -844 R
0 672 V
-31 -672 R
62 0 V
-62 672 R
62 0 V
2 -579 R
0 493 V
-31 -493 R
62 0 V
-62 493 R
62 0 V
3 -620 R
0 765 V
-31 -765 R
62 0 V
-62 765 R
62 0 V
2 -617 R
0 554 V
-31 -554 R
62 0 V
-62 554 R
62 0 V
2 -597 R
0 651 V
-31 -651 R
62 0 V
-62 651 R
62 0 V
2 -530 R
0 414 V
-31 -414 R
62 0 V
-62 414 R
62 0 V
2 -415 R
0 434 V
-31 -434 R
62 0 V
-62 434 R
62 0 V
3 -535 R
0 642 V
-31 -642 R
62 0 V
-62 642 R
62 0 V
2 -919 R
0 1263 V
5004 1639 M
62 0 V
-62 1263 R
62 0 V
2 -850 R
0 443 V
-31 -443 R
62 0 V
-62 443 R
62 0 V
2 -415 R
0 440 V
-31 -440 R
62 0 V
-62 440 R
62 0 V
2 -610 R
0 787 V
-31 -787 R
62 0 V
-62 787 R
62 0 V
3 -685 R
0 594 V
-31 -594 R
62 0 V
-62 594 R
62 0 V
2 -672 R
0 833 V
stroke
5170 1934 M
62 0 V
-62 833 R
62 0 V
2 -677 R
0 540 V
-31 -540 R
62 0 V
-62 540 R
62 0 V
2 -713 R
0 902 V
-31 -902 R
62 0 V
-62 902 R
62 0 V
2 -873 R
0 914 V
-31 -914 R
62 0 V
-62 914 R
62 0 V
3 -803 R
0 721 V
-31 -721 R
62 0 V
-62 721 R
62 0 V
2 -553 R
0 395 V
-31 -395 R
62 0 V
-62 395 R
62 0 V
2 -549 R
0 742 V
-31 -742 R
62 0 V
-62 742 R
62 0 V
2 -702 R
0 909 V
-31 -909 R
62 0 V
-62 909 R
62 0 V
2 -777 R
0 662 V
-31 -662 R
62 0 V
-62 662 R
62 0 V
3 -677 R
0 694 V
-31 -694 R
62 0 V
-62 694 R
62 0 V
2 -745 R
0 817 V
-31 -817 R
62 0 V
-62 817 R
62 0 V
2 -653 R
0 533 V
-31 -533 R
62 0 V
-62 533 R
62 0 V
2 -631 R
0 759 V
-31 -759 R
62 0 V
-62 759 R
62 0 V
2 -2141 R
0 3544 V
5601 861 M
62 0 V
-62 3544 R
62 0 V
3 -2280 R
0 1044 V
5635 2125 M
62 0 V
-62 1044 R
62 0 V
2 -912 R
0 812 V
-31 -812 R
62 0 V
-62 812 R
62 0 V
2 -670 R
0 533 V
-31 -533 R
62 0 V
-62 533 R
62 0 V
2 -642 R
0 767 V
-31 -767 R
62 0 V
-62 767 R
62 0 V
stroke
5798 2298 M
0 761 V
-31 -761 R
62 0 V
-62 761 R
62 0 V
3 -836 R
0 918 V
-31 -918 R
62 0 V
-62 918 R
62 0 V
2 -766 R
0 618 V
-31 -618 R
62 0 V
-62 618 R
62 0 V
2 -648 R
0 708 V
-31 -708 R
62 0 V
-62 708 R
62 0 V
2 -703 R
0 698 V
-31 -698 R
62 0 V
-62 698 R
62 0 V
2 -633 R
0 592 V
-31 -592 R
62 0 V
-62 592 R
62 0 V
3 -630 R
0 671 V
-31 -671 R
62 0 V
-62 671 R
62 0 V
2 -832 R
0 1006 V
6000 2216 M
62 0 V
-62 1006 R
62 0 V
2 -941 R
0 908 V
-31 -908 R
62 0 V
-62 908 R
62 0 V
2 -781 R
0 670 V
-31 -670 R
62 0 V
-62 670 R
62 0 V
2 -743 R
0 822 V
-31 -822 R
62 0 V
-62 822 R
62 0 V
3 -820 R
0 841 V
-31 -841 R
62 0 V
-62 841 R
62 0 V
2 -995 R
0 1149 V
6166 2183 M
62 0 V
-62 1149 R
62 0 V
2 -915 R
0 692 V
-31 -692 R
62 0 V
-62 692 R
62 0 V
2 -713 R
0 747 V
-31 -747 R
62 0 V
-62 747 R
62 0 V
2 -844 R
0 966 V
-31 -966 R
62 0 V
-62 966 R
62 0 V
3 -898 R
0 844 V
-31 -844 R
62 0 V
-62 844 R
62 0 V
2 -696 R
0 723 V
-31 -723 R
62 0 V
stroke
6332 3238 M
62 0 V
2 -665 R
0 607 V
-31 -607 R
62 0 V
-62 607 R
62 0 V
2 -604 R
0 668 V
-31 -668 R
62 0 V
-62 668 R
62 0 V
2 -683 R
0 768 V
-31 -768 R
62 0 V
-62 768 R
62 0 V
3 -655 R
0 602 V
-31 -602 R
62 0 V
-62 602 R
62 0 V
2 -569 R
0 602 V
-31 -602 R
62 0 V
-62 602 R
62 0 V
2 -547 R
0 518 V
-31 -518 R
62 0 V
-62 518 R
62 0 V
2 -700 R
0 1051 V
6564 2580 M
62 0 V
-62 1051 R
62 0 V
2 -859 R
0 745 V
-31 -745 R
62 0 V
-62 745 R
62 0 V
3 -608 R
0 489 V
-31 -489 R
62 0 V
-62 489 R
62 0 V
2 -585 R
0 757 V
-31 -757 R
62 0 V
-62 757 R
62 0 V
2 78 R
0 591 V
-31 -591 R
62 0 V
-62 591 R
62 0 V
918 650 Pls
951 757 Pls
984 815 Pls
1018 819 Pls
1051 918 Pls
1084 959 Pls
1117 967 Pls
1150 1027 Pls
1184 1084 Pls
1217 1086 Pls
1250 1097 Pls
1283 1180 Pls
1316 1184 Pls
1350 1202 Pls
1383 1220 Pls
1416 1255 Pls
1449 1258 Pls
1482 1262 Pls
1516 1262 Pls
1549 1273 Pls
1582 1279 Pls
1615 1326 Pls
1648 1329 Pls
1682 1357 Pls
1715 1390 Pls
1748 1400 Pls
1781 1403 Pls
1814 1408 Pls
1848 1410 Pls
1881 1413 Pls
1914 1419 Pls
1947 1440 Pls
1980 1447 Pls
2014 1468 Pls
2047 1479 Pls
2080 1479 Pls
2113 1504 Pls
2146 1504 Pls
2180 1513 Pls
2213 1516 Pls
2246 1525 Pls
2279 1526 Pls
2312 1541 Pls
2346 1543 Pls
2379 1550 Pls
2412 1551 Pls
2445 1564 Pls
2478 1565 Pls
2512 1577 Pls
2545 1578 Pls
2578 1583 Pls
2611 1611 Pls
2644 1616 Pls
2678 1621 Pls
2711 1628 Pls
2744 1637 Pls
2777 1644 Pls
2810 1647 Pls
2844 1664 Pls
2877 1675 Pls
2910 1677 Pls
2943 1684 Pls
2976 1692 Pls
3010 1697 Pls
3043 1699 Pls
3076 1718 Pls
3109 1742 Pls
3142 1746 Pls
3176 1762 Pls
3209 1767 Pls
3242 1775 Pls
3275 1781 Pls
3308 1782 Pls
3342 1793 Pls
3375 1799 Pls
3408 1810 Pls
3441 1861 Pls
3474 1877 Pls
3508 1891 Pls
3541 1892 Pls
3574 1906 Pls
3607 1919 Pls
3640 1920 Pls
3674 1923 Pls
3707 1936 Pls
3740 1939 Pls
3773 1947 Pls
3806 1953 Pls
3840 1957 Pls
3873 1970 Pls
3906 1985 Pls
3939 1985 Pls
3972 1990 Pls
4006 1993 Pls
4039 1998 Pls
4072 1999 Pls
4105 2007 Pls
4138 2018 Pls
4172 2024 Pls
4205 2032 Pls
4238 2043 Pls
4271 2053 Pls
4304 2054 Pls
4338 2055 Pls
4371 2060 Pls
4404 2065 Pls
4437 2076 Pls
4470 2088 Pls
4504 2098 Pls
4537 2111 Pls
4570 2112 Pls
4603 2120 Pls
4636 2127 Pls
4670 2145 Pls
4703 2154 Pls
4736 2158 Pls
4769 2162 Pls
4802 2165 Pls
4836 2174 Pls
4869 2217 Pls
4902 2222 Pls
4935 2225 Pls
4968 2234 Pls
5002 2237 Pls
5035 2271 Pls
5068 2274 Pls
5101 2300 Pls
5134 2303 Pls
5168 2309 Pls
5201 2351 Pls
5234 2360 Pls
5267 2368 Pls
5300 2403 Pls
5334 2417 Pls
5367 2423 Pls
5400 2442 Pls
5433 2565 Pls
5466 2574 Pls
5500 2575 Pls
5533 2585 Pls
5566 2608 Pls
5599 2623 Pls
5632 2633 Pls
5666 2647 Pls
5699 2663 Pls
5732 2665 Pls
5765 2673 Pls
5798 2679 Pls
5832 2682 Pls
5865 2684 Pls
5898 2699 Pls
5931 2699 Pls
5964 2711 Pls
5998 2713 Pls
6031 2719 Pls
6064 2735 Pls
6097 2743 Pls
6130 2746 Pls
6164 2757 Pls
6197 2758 Pls
6230 2763 Pls
6263 2769 Pls
6296 2782 Pls
6330 2789 Pls
6363 2877 Pls
6396 2877 Pls
6429 2910 Pls
6462 2945 Pls
6496 2975 Pls
6529 3008 Pls
6562 3021 Pls
6595 3105 Pls
6628 3145 Pls
6662 3153 Pls
6695 3192 Pls
6728 3944 Pls
1.000 UL
LTb
918 540 M
5976 0 V
0 4284 V
-5976 0 V
918 540 L
1.000 UP
stroke
grestore
end
showpage
%%Trailer
%%DocumentFonts: Helvetica
